dff/dump.vcd
$date
    Apr 24, 2020  11:56:57
$end
$version
    TOOL:	ncsim	15.20-s038
$end
$timescale
    1 ns
$end

$scope module top $end
$var reg       1 !    clk  $end

$scope module intf $end
$var wire      1 "    clk  $end
$var reg       1 #    reset  $end
$var reg       1 $    din  $end
$var reg       1 %    dout  $end
$upscope $end


$scope module DUT $end
$var wire      1 &    clk  $end
$var wire      1 '    reset  $end
$var wire      1 (    din  $end
$var reg       1 )    dout  $end
$upscope $end

$upscope $end

$enddefinitions $end
$dumpvars
0!
0"
x#
0$
x%
0&
x'
0(
x)
$end
#5
1!
1&
1"
0)
0%
#10
0!
0&
0"
1#
1'
#15
1!
1&
1"
#20
0!
0&
0"
0#
0'
#25
1!
1&
1"
#30
0!
0&
0"
1#
1'
#35
1!
1&
1"
#40
0!
0&
0"
#45
1!
1&
1"
#50
0!
0&
0"
#55
1!
1&
1"
#60
0!
0&
0"
1$
1(
#65
1!
1&
1"
1)
1%
#70
0!
0&
0"
#75
1!
1&
1"
#80
0!
0&
0"
#85
1!
1&
1"
#90
0!
0&
0"
#95
1!
1&
1"
#100
0!
0&
0"
#105
1!
1&
1"
#110
0!
0&
0"
#115
1!
1&
1"
#120
0!
0&
0"
#125
1!
1&
1"
#130
0!
0&
0"
0$
0(
#135
1!
1&
1"
0)
0%
#140
0!
0&
0"
#145
1!
1&
1"
#150
0!
0&
0"
#155
1!
1&
1"
#160
0!
0&
0"
#165
1!
1&
1"
#170
0!
0&
0"
1$
1(
#175
1!
1&
1"
1)
1%
#180
0!
0&
0"
#185
1!
1&
1"
#190
0!
0&
0"
0$
0(
#195
1!
1&
1"
0)
0%
#200
0!
0&
0"
1$
1(
#205
1!
1&
1"
1)
1%
#210
0!
0&
0"
#215
1!
1&
1"
#220
0!
0&
0"
0$
0(
#225
1!
1&
1"
0)
0%
#230
0!
0&
0"
1$
1(
#235
1!
1&
1"
1)
1%
#240
0!
0&
0"
#245
1!
1&
1"
#250
0!
0&
0"
0$
0(
#255
1!
1&
1"
0)
0%
#260
0!
0&
0"
1$
1(
#265
1!
1&
1"
1)
1%
#270
0!
0&
0"
#275
1!
1&
1"
#280
0!
0&
0"
0$
0(
#285
1!
1&
1"
0)
0%
#290
0!
0&
0"
#295
1!
1&
1"
#300
0!
0&
0"
1$
1(
#305
1!
1&
1"
1)
1%
#310
0!
0&
0"
#315
1!
1&
1"
#320
0!
0&
0"
#325
1!
1&
1"
#330
0!
0&
0"
0$
0(
#335
1!
1&
1"
0)
0%
#340
0!
0&
0"
1$
1(
#345
1!
1&
1"
1)
1%
#350
0!
0&
0"
0$
0(
#355
1!
1&
1"
0)
0%
#360
0!
0&
0"
1$
1(
#365
1!
1&
1"
1)
1%
#370
0!
0&
0"
0$
0(
#375
1!
1&
1"
0)
0%
#380
0!
0&
0"
#385
1!
1&
1"
#390
0!
0&
0"
#395
1!
1&
1"
#400
0!
0&
0"
#405
1!
1&
1"
#410
0!
0&
0"
#415
1!
1&
1"
#420
0!
0&
0"
1$
1(
#425
1!
1&
1"
1)
1%
#430
0!
0&
0"
0$
