adder/dump.vcd
$date
    Apr 24, 2020  11:56:18
$end
$version
    TOOL:	ncsim	15.20-s038
$end
$timescale
    1 ns
$end

$scope module top $end
$var reg       1 !    clk  $end
$var reg       1 "    reset  $end

$scope module i_intf $end
$var wire      1 #    clk  $end
$var wire      1 $    reset  $end
$var reg       1 %    a  $end
$var reg       1 &    b  $end
$var reg       1 '    c  $end
$var reg       2 (    sum [1:0] $end
$var reg       1 )    carry  $end
$upscope $end


$scope module DUT $end
$var wire      1 #    clk  $end
$var wire      1 $    reset  $end
$var wire      1 *    a  $end
$var wire      1 +    b  $end
$var wire      1 ,    c  $end
$var wire      2 -    sum [1:0] $end
$var wire      1 .    carry  $end
$var reg       2 /    temp1 [1:0] $end
$var reg       1 0    temp2  $end
$upscope $end

$upscope $end

$enddefinitions $end
$dumpvars
0!
1"
0#
1$
0%
0&
0'
b0 (
x)
0*
0+
0,
b0 -
x.
b0 /
x0
$end
#5
1!
0"
0$
1#
00
0.
0)
#10
0!
0#
#15
1!
1#
1%
1&
1'
1,
1+
1*
#20
0!
0#
#25
1!
1#
b1 /
10
1.
b1 -
1)
b1 (
#30
0!
0#
#35
1!
1#
#40
0!
0#
#45
1!
1#
0%
0&
0'
0,
0+
0*
#50
0!
0#
#55
1!
1#
b0 /
00
0.
b0 -
0)
b0 (
#60
0!
0#
#65
1!
1#
#70
0!
0#
#75
1!
1#
#80
0!
0#
#85
1!
1#
#90
0!
0#
#95
1!
1#
#100
0!
0#
#105
1!
1#
1%
1&
1+
1*
#110
0!
0#
#115
1!
1#
10
1.
1)
#120
0!
0#
#125
1!
1#
#130
0!
0#
#135
1!
1#
0&
1'
1,
0+
#140
0!
0#
#145
1!
1#
#150
0!
0#
#155
1!
1#
#160
0!
0#
#165
1!
1#
0%
0'
0,
0*
#170
0!
0#
#175
1!
1#
00
0.
0)
#180
0!
0#
#185
1!
1#
#190
0!
0#
#195
1!
1#
1%
1&
1+
1*
#200
0!
0#
#205
1!
1#
10
1.
1)
#210
0!
0#
#215
1!
1#
#220
0!
0#
#225
1!
1#
0&
0+
#230
0!
0#
#235
1!
1#
b1 /
00
0.
b1 -
0)
b1 (
#240
0!
0#
#245
1!
1#
#250
0!
0#
#255
1!
1#
0%
1&
1'
1,
1+
0*
#260
0!
0#
#265
1!
1#
b0 /
10
1.
b0 -
1)
b0 (
#270
0!
0#
#275
1!
1#
#280
0!
0#
#285
1!
1#
0&
0'
0,
0+
#290
0!
0#
#295
1!
1#
00
0.
0)
