up_down_counter/dump.vcd
$date
    Apr 24, 2020  12:01:57
$end
$version
    TOOL:	ncsim	15.20-s038
$end
$timescale
    1 ns
$end

$scope module top $end
$var reg       1 !    clk  $end
$var reg       1 "    reset  $end

$scope module i_intf $end
$var wire      1 #    clk  $end
$var wire      1 $    reset  $end
$var reg       1 %    UpOrDown  $end
$var reg       4 &    count [0:3] $end
$upscope $end


$scope module dut $end
$var wire      1 #    clk  $end
$var wire      1 $    reset  $end
$var wire      1 '    UpOrDown  $end
$var reg       4 (    count [3:0] $end
$upscope $end

$upscope $end

$enddefinitions $end
$dumpvars
0!
1"
0#
1$
x%
b0 &
x'
b0 (
$end
#5
1!
0"
0$
1#
b1111 (
b1111 &
#10
0!
0#
#15
1!
1#
b1110 (
b1110 &
0%
0'
#20
0!
0#
#25
1!
1#
b1101 (
b1101 &
#30
0!
0#
#35
1!
1#
b1100 (
b1100 &
#40
0!
0#
#45
1!
1#
b1011 (
b1011 &
1%
1'
#50
0!
0#
#55
1!
1#
b1100 (
b1100 &
#60
0!
0#
#65
1!
1#
b1101 (
b1101 &
#70
0!
0#
#75
1!
1#
b1110 (
b1110 &
#80
0!
0#
#85
1!
1#
b1111 (
b1111 &
#90
0!
0#
#95
1!
1#
b0 (
b0 &
#100
0!
0#
#105
1!
1#
b1 (
b1 &
0%
0'
#110
0!
0#
#115
1!
1#
b0 (
b0 &
#120
0!
0#
#125
1!
1#
b1111 (
b1111 &
#130
0!
0#
#135
1!
1#
b1110 (
b1110 &
#140
0!
0#
#145
1!
1#
b1101 (
b1101 &
#150
0!
0#
#155
1!
1#
b1100 (
b1100 &
#160
0!
0#
#165
1!
1#
b1011 (
b1011 &
#170
0!
0#
#175
1!
1#
b1010 (
b1010 &
#180
0!
0#
#185
1!
1#
b1001 (
b1001 &
#190
0!
0#
#195
1!
1#
b1000 (
b1000 &
1%
1'
#200
0!
0#
#205
1!
1#
b1001 (
b1001 &
#210
0!
0#
#215
1!
1#
b1010 (
b1010 &
#220
0!
0#
#225
1!
1#
b1011 (
b1011 &
0%
0'
#230
0!
0#
#235
1!
1#
b1010 (
b1010 &
#240
0!
0#
#245
1!
1#
b1001 (
b1001 &
#250
0!
0#
#255
1!
1#
b1000 (
b1000 &
1%
1'
#260
0!
0#
#265
1!
1#
b1001 (
b1001 &
#270
0!
0#
#275
1!
1#
b1010 (
b1010 &
#280
0!
0#
#285
1!
1#
b1011 (
b1011 &
#290
0!
0#
#295
1!
1#
b1100 (
b1100 &
#300
0!
0#
#305
1!
1#
b1101 (
b1101 &
#310
0!
0#
#315
1!
1#
b1110 (
b1110 &
0%
0'
#320
0!
0#
#325
1!
1#
b1101 (
b1101 &
#330
0!
0#
#335
1!
1#
b1100 (
b1100 &
#340
0!
0#
#345
1!
1#
b1011 (
b1011 &
#350
0!
0#
#355
1!
1#
b1010 (
b1010 &
#360
0!
0#
#365
1!
1#
b1001 (
b1001 &
#370
0!
0#
#375
1!
1#
b1000 (
b1000 &
#380
0!
0#
#385
1!
1#
b111 (
b111 &
#390
0!
0#
#395
1!
1#
b110 (
b110 &
#400
0!
0#
#405
1!
1#
b101 (
b101 &
#410
0!
0#
#415
1!
1#
b100 (
b100 &
#420
0!
0#
#425
1!
1#
b11 (
b11 &
#430
0!
0#
#435
1!
1#
b10 (
b10 &
#440
0!
0#
#445
1!
1#
b1 (
b1 &
#450
0!
0#
#455
1!
1#
b0 (
b0 &
#460
0!
0#
#465
1!
1#
b1111 (
b1111 &
#470
0!
0#
#475
1!
1#
b1110 (
b1110 &
#480
0!
0#
#485
1!
1#
b1101 (
b1101 &
#490
0!
0#
#495
1!
1#
b1100 (
b1100 &
#500
0!
0#
#505
1!
1#
b1011 (
b1011 &
#510
0!
0#
#515
1!
1#
b1010 (
b1010 &
#520
0!
0#
#525
1!
1#
b1001 (
b1001 &
#530
0!
0#
#535
1!
1#
b1000 (
b1000 &
#540
0!
0#
#545
1!
1#
b111 (
b111 &
#550
0!
0#
#555
1!
1#
b110 (
b110 &
1%
1'
#560
0!
0#
#565
1!
1#
b111 (
b111 &
#570
0!
0#
#575
1!
1#
b1000 (
b1000 &
#580
0!
0#
#585
1!
1#
b1001 (
b1001 &
#590
0!
0#
#595
1!
1#
b1010 (
b1010 &
#600
0!
0#
#605
1!
1#
b1011 (
b1011 &
#610
0!
0#
#615
1!
1#
b1100 (
b1100 &
#620
0!
0#
#625
1!
1#
b1101 (
b1101 &
#630
0!
0#
#635
1!
1#
b1110 (
b1110 &
#640
0!
0#
#645
1!
1#
b1111 (
b1111 &
0%
0'
#650
0!
0#
#655
1!
1#
b1110 (
b1110 &
#660
0!
0#
#665
1!
1#
b1101 (
b1101 &
#670
0!
0#
#675
1!
1#
b1100 (
b1100 &
1%
1'
#680
0!
0#
#685
1!
1#
b1101 (
b1101 &
#690
0!
0#
#695
1!
1#
b1110 (
b1110 &
#700
0!
0#
#705
1!
1#
b1111 (
b1111 &
#710
0!
0#
#715
1!
1#
b0 (
b0 &
#720
0!
0#
#725
1!
1#
b1 (
b1 &
#730
0!
0#
#735
1!
1#
b10 (
b10 &
#740
0!
0#
#745
1!
1#
b11 (
b11 &
#750
0!
0#
#755
1!
1#
b100 (
b100 &
#760
0!
0#
#765
1!
1#
b101 (
b101 &
0%
0'
#770
0!
0#
#775
1!
1#
b100 (
b100 &
#780
0!
0#
#785
1!
1#
b11 (
b11 &
#790
0!
0#
#795
1!
1#
b10 (
b10 &
#800
0!
0#
#805
1!
1#
b1 (
b1 &
#810
0!
0#
#815
1!
1#
b0 (
b0 &
#820
0!
0#
#825
1!
1#
b1111 (
b1111 &
1%
1'
#830
0!
0#
#835
1!
1#
b0 (
b0 &
#840
0!
0#
#845
1!
1#
b1 (
b1 &
#850
0!
0#
#855
1!
1#
b10 (
b10 &
0%
0'
#860
0!
0#
#865
1!
1#
b1 (
b1 &
#870
0!
0#
#875
1!
1#
b0 (
b0 &
#880
0!
0#
#885
1!
1#
b1111 (
b1111 &
1%
1'
#890
0!
0#
#895
1!
1#
b0 (
b0 &
#900
0!
0#
#905
1!
1#
b1 (
b1 &
#910
0!
0#
#915
1!
1#
b10 (
b10 &
#920
0!
0#
#925
1!
1#
b11 (
b11 &
#930
0!
0#
#935
1!
1#
b100 (
b100 &
#940
0!
0#
#945
1!
1#
b101 (
b101 &
0%
0'
#950
0!
0#
#955
1!
1#
b100 (
b100 &
#960
0!
0#
#965
1!
1#
b11 (
b11 &
#970
0!
0#
#975
1!
1#
b10 (
b10 &
#980
0!
0#
#985
1!
1#
b1 (
b1 &
#990
0!
0#
#995
1!
1#
b0 (
b0 &
#1000
0!
0#
#1005
1!
1#
b1111 (
b1111 &
#1010
0!
0#
#1015
1!
1#
b1110 (
b1110 &
#1020
0!
0#
#1025
1!
1#
b1101 (
b1101 &
#1030
0!
0#
#1035
1!
1#
b1100 (
b1100 &
#1040
0!
0#
#1045
1!
1#
b1011 (
b1011 &
#1050
0!
0#
#1055
1!
1#
b1010 (
b1010 &
#1060
0!
0#
#1065
1!
1#
b1001 (
b1001 &
1%
1'
#1070
0!
0#
#1075
1!
1#
b1010 (
b1010 &
#1080
0!
0#
#1085
1!
1#
b1011 (
b1011 &
#1090
0!
0#
#1095
1!
1#
b1100 (
b1100 &
#1100
0!
0#
#1105
1!
1#
b1101 (
b1101 &
#1110
0!
0#
#1115
1!
1#
b1110 (
b1110 &
#1120
0!
0#
#1125
1!
1#
b1111 (
b1111 &
#1130
0!
0#
#1135
1!
1#
b0 (
b0 &
#1140
0!
0#
#1145
1!
1#
b1 (
b1 &
#1150
0!
0#
#1155
1!
1#
b10 (
b10 &
0%
0'
#1160
0!
0#
#1165
1!
1#
b1 (
b1 &
#1170
0!
0#
#1175
1!
1#
b0 (
b0 &
#1180
0!
0#
#1185
1!
1#
b1111 (
b1111 &
1%
1'
#1190
0!
0#
#1195
1!
1#
b0 (
b0 &
#1200
0!
0#
#1205
1!
1#
b1 (
b1 &
